TextAnalysisOnDota2Comments
…
library(janeaustenr)
library(stringr)
austen_books()

## # A tibble: 73,422 x 2
##    text                  book               
##  * <chr>                 <fct>              
##  1 SENSE AND SENSIBILITY Sense & Sensibility
##  2 ""                    Sense & Sensibility
##  3 by Jane Austen        Sense & Sensibility
##  4 ""                    Sense & Sensibility
##  5 (1811)                Sense & Sensibility
##  6 ""                    Sense & Sensibility
##  7 ""                    Sense & Sensibility
##  8 ""                    Sense & Sensibility
##  9 ""                    Sense & Sensibility
## 10 CHAPTER 1             Sense & Sensibility
## # ... with 73,412 more rows

original_books <- austen_books() %>% 
  group_by(book) %>% 
  mutate(linenumber = row_number(),
         chapter = cumsum(str_detect(text, regex('^chapter [\\divxlc]', 
                                                 ignore_case = TRUE)))) %>% 
  ungroup()
original_books

## # A tibble: 73,422 x 4
##    text                  book                linenumber chapter
##    <chr>                 <fct>                    <int>   <int>
##  1 SENSE AND SENSIBILITY Sense & Sensibility          1       0
##  2 ""                    Sense & Sensibility          2       0
##  3 by Jane Austen        Sense & Sensibility          3       0
##  4 ""                    Sense & Sensibility          4       0
##  5 (1811)                Sense & Sensibility          5       0
##  6 ""                    Sense & Sensibility          6       0
##  7 ""                    Sense & Sensibility          7       0
##  8 ""                    Sense & Sensibility          8       0
##  9 ""                    Sense & Sensibility          9       0
## 10 CHAPTER 1             Sense & Sensibility         10       1
## # ... with 73,412 more rows

tidy_books <- original_books %>% 
  unnest_tokens(word, text) %>% 
  anti_join(stop_words)
tidy_books

## # A tibble: 217,609 x 4
##    book                linenumber chapter word       
##    <fct>                    <int>   <int> <chr>      
##  1 Sense & Sensibility          1       0 sense      
##  2 Sense & Sensibility          1       0 sensibility
##  3 Sense & Sensibility          3       0 jane       
##  4 Sense & Sensibility          3       0 austen     
##  5 Sense & Sensibility          5       0 1811       
##  6 Sense & Sensibility         10       1 chapter    
##  7 Sense & Sensibility         10       1 1          
##  8 Sense & Sensibility         13       1 family     
##  9 Sense & Sensibility         13       1 dashwood   
## 10 Sense & Sensibility         13       1 settled    
## # ... with 217,599 more rows

tidy_books %>% 
  count(word, sort = TRUE)

## # A tibble: 13,914 x 2
##    word       n
##    <chr>  <int>
##  1 miss    1855
##  2 time    1337
##  3 fanny    862
##  4 dear     822
##  5 lady     817
##  6 sir      806
##  7 day      797
##  8 emma     787
##  9 sister   727
## 10 house    699
## # ... with 13,904 more rows
…
tidy_books <- austen_books() %>% 
  group_by(book) %>% 
  mutate(linenumber = row_number(),
         chapter = cumsum(str_detect(text, regex('^chapter [\\divxlc]', ignore_case = T)))) %>% 
  ungroup() %>% 
  unnest_tokens(word, text)

nrc_joy <- get_sentiments('nrc') %>% 
  filter(sentiment == 'joy')
tidy_books %>% 
  filter(book == 'Emma') %>% 
  inner_join(nrc_joy) %>% 
  count(word, sort = T)

## # A tibble: 303 x 2
##    word        n
##    <chr>   <int>
##  1 good      359
##  2 young     192
##  3 friend    166
##  4 hope      143
##  5 happy     125
##  6 love      117
##  7 deal       92
##  8 found      92
##  9 present    89
## 10 kind       82
## # ... with 293 more rows
…
df %>% unnest_tokens(word, comment) %>% anti_join(stop_words) %>% count(word, sort = T)

## # A tibble: 15,141 x 2
##    word        n
##    <chr>   <int>
##  1 game     4288
##  2 dota     2815
##  3 play     1312
##  4 2        1202
##  5 10        711
##  6 time      660
##  7 life      596
##  8 players   594
##  9 people    581
## 10 playing   578
## # ... with 15,131 more rows
